
<svg xmlns="http://www.w3.org/2000/svg" width="1440" height="682" viewBox="0 0 1440 682" fill="none">
<path d="M1440 21.6783C892 -72.1824 876 178.816 0 21.6783V608.046C504 564.806 1115.45 817.858 1440 575.353V21.6783Z" fill="url(#paint0_linear)"/>
<defs>
<linearGradient id="paint0_linear" x1="0" y1="0" x2="527.65" y2="1114.1" gradientUnits="userSpaceOnUse">
<stop stop-color="#EBF4FF"/>
<stop offset="1" stop-color="#E6FFFA"/>
</linearGradient>
</defs>
</svg>
